{
    "bg": "rgb(248,255,245)",
    "fg": "#333",
    "mainfg": "#333",
    "asidefg": "#333",
    "mainbg": "rgb(252,236,237)",
    "navcategorybg": "transparent",
    "navheaderbg": "transparent",
    "navitembg": "transparent",
    "navitemactivebg": "rgb(216,234,221)",
    "navitemhoverbg": "rgba(216,234,221,0.5)",
    "navitemborder": "none",
    "navheaderborder": "none",
    "navitemfg": "rgb(51,51,51)",
    "navheaderfg": "rgb(51,51,51)",
    "navitemactivefg": "rgb(61,127,97)",
    "overlaybg": "transparent",
    "overlayfilter": "blur(20px)",
    "navsize": "240px",
    "navpadding": "20px",
    "navitempadding": "10px",
    "navheaderpadding": "10px",
    "navitemmargin": "8px",
    "navitemborderradius": "24px",
    "navcategoryborder": "1px solid rgb(216,234,221)",
    "navcategoryborderradius": "24px",
    "navcategorymargin": "32px",
    "inputfg": "#333",
    "inputbg": "#fff",
    "inputborder": "2.5px solid #333",
    "inputborderradius": "8px",
    "naviconfilter": "filter: brightness(0) saturate(100%) invert(13%) sepia(8%) saturate(0%) hue-rotate(210deg) brightness(102%) contrast(83%)",
    "inputiconfilter": "filter: brightness(0) saturate(100%) invert(13%) sepia(8%) saturate(0%) hue-rotate(210deg) brightness(102%) contrast(83%)",
    "navitemsize": "14px",
    "naviconsize": "24px",
    "navheadersize": "14px"
}